<?xml version="1.0" encoding="utf-8"?>
<!-- Generator: Adobe Illustrator 22.0.1, SVG Export Plug-In . SVG Version: 6.00 Build 0)  -->
<svg version="1.1" id="Layer_1" xmlns="http://www.w3.org/2000/svg" xmlns:xlink="http://www.w3.org/1999/xlink" x="0px" y="0px"
	 viewBox="0 0 120 120" style="enable-background:new 0 0 120 120;" xml:space="preserve">
<style type="text/css">
	.st0{fill:#FF3C64;}
	.st1{fill:#282828;}
</style>
<g>
	<g>
		<polygon class="st1" points="72.2,100 47.8,100 47.8,91.9 50.7,91.9 50.7,97.1 69.3,97.1 69.3,91.9 72.2,91.9 		"/>
		<rect x="43.1" y="97.1" class="st1" width="33.8" height="2.9"/>
		<path class="st1" d="M98,80.5H22V32.1c0-1.1,0.4-2.1,1.2-2.8c0.7-0.8,1.8-1.2,2.8-1.2h9.5v2.9H26c-0.3,0-0.6,0.1-0.8,0.3
			c-0.2,0.2-0.3,0.5-0.3,0.8v45.5h70.3V32.1c0-0.3-0.1-0.6-0.3-0.8c-0.2-0.2-0.5-0.3-0.8-0.3h-9.5v-2.9H94c1.1,0,2.1,0.4,2.8,1.2
			C97.6,30,98,31,98,32.1V80.5z"/>
		<rect x="41.9" y="28.1" class="st1" width="6.4" height="2.9"/>
		<path class="st1" d="M94,89.1H26c-1.1,0-2.1-0.4-2.8-1.2c-0.8-0.7-1.2-1.8-1.2-2.8v-7.5h76v7.5c0,1.1-0.4,2.1-1.2,2.8
			C96.1,88.7,95.1,89.1,94,89.1z M24.9,80.5v4.6c0,0.3,0.1,0.6,0.3,0.8c0.2,0.2,0.5,0.3,0.8,0.3h68c0.3,0,0.6-0.1,0.8-0.3
			c0.2-0.2,0.3-0.5,0.3-0.8v-4.6H24.9z"/>
		<g>
			<polygon class="st1" points="85.9,73.3 83.1,73.3 83.1,30.1 75.8,22.9 49.7,22.9 49.7,73.3 46.8,73.3 46.8,20 77,20 85.9,28.9 
							"/>
			<polygon class="st1" points="84.5,30.9 75,30.9 75,21.4 77.8,21.4 77.8,28.1 84.5,28.1 			"/>
		</g>
	</g>
	<g>
		<rect x="41.5" y="33.8" class="st0" width="5.3" height="2.9"/>
		<g>
			<polygon class="st0" points="40.6,30.1 38.7,25.9 36.8,30.1 34.2,28.9 38.7,19 43.2,28.9 			"/>
			<path class="st0" d="M43.3,73.3h-2.9V30.9h-3.5v42.4h-2.9V29.5c0-0.8,0.6-1.4,1.4-1.4h6.4c0.8,0,1.4,0.6,1.4,1.4V73.3z"/>
		</g>
		<g>
			<path class="st0" d="M63.4,55.3c-4.7-1.3-8-5.7-8-10.6c0-6,4.9-11,11-11c6,0,11,4.9,11,11c0,4.9-3.3,9.3-8,10.6l-0.8-2.8
				c3.5-1,5.9-4.2,5.9-7.8c0-4.5-3.6-8.1-8.1-8.1c-4.5,0-8.1,3.6-8.1,8.1c0,3.6,2.4,6.8,5.9,7.8L63.4,55.3z"/>
			<g>
				<rect x="64.9" y="60.5" class="st0" width="2.9" height="6.7"/>
				<path class="st0" d="M74.2,61.9H58.5l7.8-16.8L74.2,61.9z M63,59h6.7l-3.3-7.1L63,59z"/>
			</g>
		</g>
		<polygon class="st0" points="92.3,74.7 27.7,74.7 27.7,33.8 35.5,33.8 35.5,36.7 30.6,36.7 30.6,71.9 89.4,71.9 89.4,36.7 
			85.9,36.7 85.9,33.8 92.3,33.8 		"/>
	</g>
</g>
</svg>
